<?xml version="1.0" encoding="utf-8"?>
<!-- Generator: Adobe Illustrator 16.0.4, SVG Export Plug-In . SVG Version: 6.00 Build 0)  -->
<!DOCTYPE svg PUBLIC "-//W3C//DTD SVG 1.1//EN" "http://www.w3.org/Graphics/SVG/1.1/DTD/svg11.dtd">
<svg version="1.1" id="Layer_1" xmlns="http://www.w3.org/2000/svg" xmlns:xlink="http://www.w3.org/1999/xlink" x="0px" y="0px"
	 width="388.5px" height="392.08px" viewBox="0 0 388.5 392.08" enable-background="new 0 0 388.5 392.08" xml:space="preserve">
<g>
	<path d="M357.209,280.2l-57.601-33.28l42.88-11.52c5.12-1.28,8.32-6.4,7.04-11.521s-6.399-8.32-11.52-7.04l-61.44,16.641
		l-37.12-21.761v-29.44l37.12-21.12l61.44,16.64c0.64,0,1.92,0.64,2.56,0.64c4.48,0,8.32-2.56,8.96-7.04
		c1.28-5.12-1.92-10.24-7.04-11.52l-42.88-11.52l57.601-33.28c4.479-2.56,6.399-8.32,3.199-12.8c-2.56-4.48-8.319-6.4-12.8-3.2
		l-57.6,33.28l11.52-42.88c1.28-5.12-1.92-10.24-7.04-11.52c-5.12-1.28-10.24,1.92-11.52,7.04l-16.641,61.44l-37.119,21.12
		l-25.601-14.72v-42.88l44.8-44.8c3.84-3.84,3.84-9.6,0-13.44c-3.84-3.84-9.6-3.84-13.439,0l-31.36,31.36V14.6
		c0-5.12-4.479-9.6-9.6-9.6s-9.601,4.48-9.601,9.6v65.92l-31.359-31.36c-3.84-3.84-9.601-3.84-13.44,0c-3.84,3.84-3.84,9.6,0,13.44
		l44.8,44.8v42.88l-25.6,14.72l-37.12-21.12l-16.64-61.44c-1.28-5.12-6.4-8.32-11.521-7.04c-5.12,1.28-8.319,6.4-7.04,11.52
		l11.521,42.88L40.409,96.52c-4.479-2.56-10.239-1.28-12.8,3.2c-2.56,4.48-1.28,10.24,3.2,12.8l57.6,33.28l-42.24,12.8
		c-5.119,1.28-8.319,6.4-7.039,11.52c1.279,4.48,5.119,7.04,8.96,7.04c0.64,0,1.92,0,2.56-0.64l61.44-16.64L149.208,181v29.44
		l-37.119,21.119l-61.44-16.64c-5.12-1.28-10.24,1.92-11.52,7.04c-1.28,5.12,1.92,10.24,7.039,11.521L89.049,245l-57.601,33.28
		c-4.479,2.56-6.399,8.319-3.2,12.8c1.92,3.2,5.12,5.12,8.32,5.12c1.92,0,3.2-0.641,4.48-1.28l57.6-33.28l-11.52,42.88
		c-1.28,5.12,1.92,10.24,7.039,11.521c0.641,0,1.921,0.64,2.561,0.64c4.479,0,8.32-2.56,8.96-7.04l16.64-61.439l37.12-21.12
		l25.601,14.72v42.88l-44.801,44.801c-3.84,3.84-3.84,9.6,0,13.439c3.841,3.84,9.601,3.84,13.44,0l31.36-31.359v65.92
		c0,5.119,4.479,9.6,9.6,9.6s9.6-4.48,9.6-9.6v-64l31.36,31.359c1.92,1.92,4.48,2.561,7.04,2.561s5.12-0.641,7.04-2.561
		c3.84-3.84,3.84-9.6,0-13.439l-44.8-44.801v-42.88l25.6-14.72l37.12,21.12l16.64,61.439c1.28,4.48,5.12,7.04,8.96,7.04
		c0.641,0,1.921,0,2.561-0.64c5.12-1.28,8.32-6.4,7.04-11.52l-12.16-42.881l57.6,33.28c1.28,0.641,3.2,1.28,4.48,1.28
		c3.2,0,6.4-1.92,8.32-5.12C363.609,288.52,361.689,282.76,357.209,280.2z M220.249,211.72l-25.6,14.721l-25.6-14.721v-29.44
		l25.6-14.72l25.6,14.72V211.72z"/>
</g>
</svg>
