<?xml version="1.0" encoding="utf-8"?>
<!-- Generator: Adobe Illustrator 16.0.4, SVG Export Plug-In . SVG Version: 6.00 Build 0)  -->
<!DOCTYPE svg PUBLIC "-//W3C//DTD SVG 1.1//EN" "http://www.w3.org/Graphics/SVG/1.1/DTD/svg11.dtd">
<svg version="1.1"
	 id="Layer_1" xmlns:dc="http://purl.org/dc/elements/1.1/" xmlns:cc="http://creativecommons.org/ns#" xmlns:rdf="http://www.w3.org/1999/02/22-rdf-syntax-ns#" xmlns:svg="http://www.w3.org/2000/svg" xmlns:sodipodi="http://sodipodi.sourceforge.net/DTD/sodipodi-0.dtd" xmlns:inkscape="http://www.inkscape.org/namespaces/inkscape"
	 xmlns="http://www.w3.org/2000/svg" xmlns:xlink="http://www.w3.org/1999/xlink" x="0px" y="0px" width="584.093px"
	 height="486.586px" viewBox="0 0 584.093 486.586" enable-background="new 0 0 584.093 486.586" xml:space="preserve">
<g transform="translate(0,-952.36218)">
	<path d="M292.047,958.855c-106.471,0-204.137,35.652-280.4,93.4c-8.538,6.291-10.36,18.311-4.07,26.849
		c6.291,8.538,18.311,10.36,26.849,4.07c0.142-0.104,0.282-0.211,0.42-0.319c69.766-52.827,159.327-85.6,257.2-85.6
		s187.435,32.772,257.2,85.6c8.361,6.523,20.428,5.032,26.95-3.33c6.523-8.361,5.032-20.428-3.33-26.95
		c-0.139-0.108-0.278-0.215-0.42-0.319C496.184,994.508,398.518,958.855,292.047,958.855z M292.047,1080.455
		c-76.559,0-148.199,23.178-204,68.201c-8.799,5.919-11.134,17.851-5.214,26.65c5.919,8.798,17.851,11.133,26.649,5.214
		c0.913-0.614,1.771-1.304,2.564-2.065c48.321-38.987,111.188-59.6,180-59.6s131.679,20.613,180,59.6
		c7.658,7.335,19.814,7.073,27.149-0.585c7.335-7.659,7.073-19.814-0.585-27.15c-0.795-0.76-1.652-1.451-2.564-2.064
		C440.246,1103.633,368.605,1080.455,292.047,1080.455z M292.047,1195.656c-47.317,0-92.393,14.82-127.2,42.4
		c-8.365,6.594-9.802,18.721-3.208,27.087c6.595,8.366,18.723,9.802,27.088,3.208c0.04-0.031,0.08-0.064,0.12-0.096
		c27.438-21.74,64.015-34.199,103.2-34.199s75.763,12.459,103.2,34.199c8.312,6.66,20.451,5.32,27.112-2.992
		c6.66-8.312,5.32-20.451-2.992-27.111c-0.04-0.033-0.08-0.064-0.12-0.096C384.439,1210.476,339.364,1195.656,292.047,1195.656z
		 M292.047,1291.656c-38.653,0-70.4,31.746-70.4,70.401c0,38.652,31.747,70.398,70.4,70.398s70.4-31.746,70.4-70.398
		C362.447,1323.402,330.7,1291.656,292.047,1291.656z M292.047,1330.056c17.9,0,32,14.099,32,32c0,17.898-14.1,32-32,32
		s-32-14.102-32-32C260.047,1344.155,274.146,1330.056,292.047,1330.056z"/>
</g>
</svg>
